module psBackKG

go 1.22.3

require (
	github.com/disintegration/imaging v1.6.2 // indirect
	github.com/fogleman/gg v1.3.0 // indirect
	github.com/golang/freetype v0.0.0-20170609003504-e2365dfdc4a0 // indirect
	github.com/golang/snappy v0.0.1 // indirect
	github.com/klauspost/compress v1.13.6 // indirect
	github.com/montanaflynn/stats v0.0.0-20171201202039-1bf9dbcd8cbe // indirect
	github.com/xdg-go/pbkdf2 v1.0.0 // indirect
	github.com/xdg-go/scram v1.1.2 // indirect
	github.com/xdg-go/stringprep v1.0.4 // indirect
	github.com/youmark/pkcs8 v0.0.0-20181117223130-1be2e3e5546d // indirect
	go.mongodb.org/mongo-driver v1.15.0 // indirect
	golang.org/x/crypto v0.17.0 // indirect
	golang.org/x/image v0.17.0 // indirect
	golang.org/x/sync v0.7.0 // indirect
	golang.org/x/text v0.16.0 // indirect
)
