{
    "Classes": {
        "Caçador": {
            "atributo_chave": "Agilidade",
            "pericias": ["Furtividade", "Movimentação", "Pontaria", "Patrulha", "Sobrevivência"],
            "equipamentos": {
                "arma": ["Arco", "Funda"],
                "armadura": null,
                "itens": 2,
                "artefato_musical": [],
                "cavalo": 0
            },
            "dados_recurso": {
                "Comida": "D8",
                "Água": "D8",
                "Flechas": "D10",
                "Prata": "D6"
            }
        },
        "Druida": {
            "atributo_chave": "Inteligencia",
            "pericias": ["Resiliência", "Sobrevivência", "Discernimento", "Cura", "Adestramento"],
            "equipamentos": {
                "arma": ["Bastão", "Faca"],
                "armadura": null,
                "itens": 1,
                "artefato_musical": [],
                "cavalo": 0
            },
            "dados_recurso": {
                "Comida": "D8",
                "Água": "D8",
                "Prata": "D6"
            }
        },
        "Mago": {
            "atributo_chave": "Inteligencia",
            "pericias": ["Artesanato", "Artimanha", "Tradição", "Discernimento", "Manipulação"],
            "equipamentos": {
                "arma": ["Bastão", "Faca"],
                "armadura": null,
                "itens": 1,
                "artefato_musical": [],
                "cavalo": 0
            },
            "dados_recurso": {
                "Comida": "D6",
                "Água": "D8",
                "Prata": "D8"
            }
        },
        "Rider": {
            "atributo_chave": "Agilidade",
            "pericias": ["Resiliência", "Luta", "Pontaria", "Sobrevivência", "Adestramento"],
            "equipamentos": {
                "arma": ["Lança Curta", "Machadinha", "Arco Curto", "Funda"],
                "armadura": null,
                "itens": 1,
                "artefato_musical": [],
                "cavalo": 1
            },
            "dados_recurso": {
                "Comida": "D8",
                "Água": "D8",
                "Flechas": "D10",
                "Prata": "D6"
            }
        },
        "Guerreiro": {
            "atributo_chave": "Forca",
            "pericias": ["Potência", "Resiliência", "Luta", "Movimentação"],
            "equipamentos": {
                "arma": ["Faca", "Adaga", "Facão", "Espada Curta", "Espada Larga", "Espada Longa", "Cimitarra", "Machadinha", "Machado de Batalha", "Maça", "Maça Estrela", "Martelo de Guerra", "Mangual", "Porrete", "Lança Curta", "Tridente"],
                "armadura": "Couro",
                "itens": 1,
                "artefato_musical": [],
                "cavalo": 0
            },
            "dados_recurso": {
                "Comida": "D8",
                "Água": "D6",
                "Prata": "D6"
            }
        },
        "Ladino": {
            "atributo_chave": "Agilidade",
            "pericias": ["Luta", "Furtividade", "Artimanha", "Movimentação", "Manipulação"],
            "equipamentos": {
                "arma": ["Adaga"],
                "armadura": null,
                "itens": 2,
                "artefato_musical": [],
                "cavalo": 0
            },
            "dados_recurso": {
                "Comida": "D6",
                "Água": "D6",
                "Prata": "D10"
            }
        },
        "Mascate": {
            "atributo_chave": "Empatia",
            "pericias": ["Artesanato", "Artimanha", "Patrulha", "Discernimento", "Manipulação"],
            "equipamentos": {
                "arma": ["Faca"],
                "armadura": null,
                "itens": 3,
                "artefato_musical": [],
                "cavalo": 0
            },
            "dados_recurso": {
                "Comida": "D8",
                "Água": "D8",
                "Prata": "D12"
            }
        },
        "Bardo": {
            "atributo_chave": "Empatia",
            "pericias": ["Tradição", "Discernimento", "Manipulação", "Atuação", "Cura"],
            "equipamentos": {
                "arma": ["Faca"],
                "armadura": null,
                "itens": 1,
                "artefato_musical": ["Lira", "Flauta"],
                "cavalo": 0
            },
            "dados_recurso": {
                "Comida": "D8",
                "Água": "D6",
                "Prata": "D8"
            }
        }
    },
    "TalentosClasses": {
        "Caçador": ["Caminho da Fera", "Caminho da Flecha", "Caminho da Floresta"],
        "Druida": ["Caminho da Cura", "Caminho da Visão", "Caminho do Metamorfo"],
        "Mago": ["Caminho da Morte", "Caminho das Rochas", "Caminho do Sangue", "Caminho dos Símbolos"],
        "Rider": ["Caminho das Planícies", "Caminho do Cavaleiro", "Caminho do Companheiro"],
        "Guerreiro": ["Caminho da Lâmina", "Caminho do Escudo", "Caminho do Inimigo"],
        "Ladino": ["Caminho do Matador", "Caminho do Rosto", "Caminho do Veneno"],
        "Mascate": ["Caminho da Mentira", "Caminho das Muitas Coisas", "Caminho do Ouro"],
        "Bardo": ["Caminho da Canção", "Caminho do Grito de Guerra", "Caminho do Hino"]
    }
}
