{
    "Armas1M": {
        "Faca": {"Bonus": "+1", "Dano": "1"},
        "Adaga": {"Bonus": "+1", "Dano": "1"},
        "Facão": {"Bonus": "+2", "Dano": "2"},
        "Espada Curta": {"Bonus": "+2", "Dano": "1"},
        "Espada Larga": {"Bonus": "+2", "Dano": "2"},
        "Espada Longa": {"Bonus": "+2", "Dano": "2"},
        "Cimitarra": {"Bonus": "+1", "Dano": "2"},
        "Machadinha": {"Bonus": "+2", "Dano": "2"},
        "Machado de Batalha": {"Bonus": "+2", "Dano": "2"},
        "Maça": {"Bonus": "+2", "Dano": "1"},
        "Maça Estrela": {"Bonus": "+2", "Dano": "2"},
        "Martelo de Guerra": {"Bonus": "+2", "Dano": "2"},
        "Mangual": {"Bonus": "+1", "Dano": "2"},
        "Porrete": {"Bonus": "+1", "Dano": "1"},
        "Lança Curta": {"Bonus": "+1", "Dano": "1"},
        "Tridente": {"Bonus": "+1", "Dano": "2"}
    },
    "Armas2M": {
        "Montante": {"Bonus": "+3", "Dano": "3"},
        "Machado de Duas Mãos": {"Bonus": "+2", "Dano": "3"},
        "Clava": {"Bonus": "+1", "Dano": "2"},
        "Malho": {"Bonus": "+2", "Dano": "3"},
        "Bastão": {"Bonus": "+1", "Dano": "1"},
        "Lança Longa": {"Bonus": "+2", "Dano": "1"},
        "Pique": {"Bonus": "+2", "Dano": "2"},
        "Alabarda": {"Bonus": "+2", "Dano": "2"}
    },
    "ArmasDistancia1M": {
        "Pedra": {"Bonus": "+0", "Dano": "1"},
        "Faca de Arremesso": {"Bonus": "+1", "Dano": "1"},
        "Machado de Arremesso": {"Bonus": "+1", "Dano": "2"},
        "Azagaia": {"Bonus": "+2", "Dano": "1"},
        "Funda": {"Bonus": "+1", "Dano": "1"}
    },
    "ArmasDistancia2M": {
        "Arco Curto": {"Bonus": "+2", "Dano": "1"},
        "Arco Longo": {"Bonus": "+2", "Dano": "1"},
        "Besta Leve": {"Bonus": "+1", "Dano": "2"},
        "Besta Pesada": {"Bonus": "+1", "Dano": "3"}
    },
    "Escudos": {
        "Escudo Pequeno": {"Bonus": "+1"},
        "Escudo Grande": {"Bonus": "+2"}
    },
    "Armaduras": {
        "Couro": {"ValorDeArmadura": "2", "ParteDoCorpo": "Corpo"},
        "Couro Batido": {"ValorDeArmadura": "3", "ParteDoCorpo": "Corpo"},
        "Cota de Malha": {"ValorDeArmadura": "6", "ParteDoCorpo": "Corpo"},
        "Armadura de Placas": {"ValorDeArmadura": "8", "ParteDoCorpo": "Corpo"},
        "Capuz de Couro Batido": {"ValorDeArmadura": "1", "ParteDoCorpo": "Cabeça"},
        "Elmo Aberto": {"ValorDeArmadura": "2", "ParteDoCorpo": "Cabeça"},
        "Elmo Fechado": {"ValorDeArmadura": "3", "ParteDoCorpo": "Cabeça"},
        "Grande Elmo": {"ValorDeArmadura": "4", "ParteDoCorpo": "Cabeça"}
    }
}
