{
    "Humano": {
        "atributo_chave": "Empatia",
        "talento_ascendente": "Adaptive",
        "profissoes_tipicas": ["Caçador", "Druida", "Mago", "Rider", "Guerreiro", "Ladino", "Mascate", "Bardo"],
        "idades": {"Jovem": [16, 25], "Adulto": [26, 50], "Idoso": [51, 80]}
    },
    "Meio-Elfo": {
        "atributo_chave": "Inteligencia",
        "talento_ascendente": "Poder mental",
        "profissoes_tipicas": ["Druida", "Mago", "Ladino"],
        "idades": {"Jovem": [16, 30], "Adulto": [31, 100], "Idoso": [101, 180]}
    },
    "Anão": {
        "atributo_chave": "Forca",
        "talento_ascendente": "Bravura Indômita",
        "profissoes_tipicas": ["Guerreiro", "Mascate", "Bardo"],
        "idades": {"Jovem": [20, 40], "Adulto": [41, 80], "Idoso": [81, 121]}
    },
    "Halfling": {
        "atributo_chave": "Empatia",
        "talento_ascendente": "Difícil de Acertar",
        "profissoes_tipicas": ["Bardo", "Mascate", "Ladino"],
        "idades": {"Jovem": [16, 25], "Adulto": [26, 60], "Idoso": [61, 98]}
    },
    "Lupino": {
        "atributo_chave": "Agilidade",
        "talento_ascendente": "Instinto de Caça",
        "profissoes_tipicas": ["Caçador", "Druida", "Guerreiro"],
        "idades": {"Jovem": [13, 20], "Adulto": [21, 40], "Idoso": [41, 65]}
    },
    "Orc": {
        "atributo_chave": "Forca",
        "talento_ascendente": "Imbatível",
        "profissoes_tipicas": ["Caçador", "Guerreiro", "Ladino"],
        "idades": {"Jovem": [13, 20], "Adulto": [21, 45], "Idoso": [46, 70]}
    },
    "Goblin": {
        "atributo_chave": "Agilidade",
        "talento_ascendente": "Noturno",
        "profissoes_tipicas": ["Caçador", "Rider", "Ladino"],
        "idades": {"Jovem": [16, 25], "Adulto": [26, 60], "Idoso": [61, 95]}
    },
    "Elfo": {
        "atributo_chave": "Agilidade",
        "talento_ascendente": "Paz Interior",
        "profissoes_tipicas": ["Caçador", "Druida", "Bardo"],
        "idades": {"Adulto": [26, 1000]}
    }
}
